{
  "project_info": {
    "project_number": "269285699390",
    "project_id": "donorun-f2012",
    "storage_bucket": "donorun-f2012.appspot.com"
  },
  "client": [
    {
      "client_info": {
        "mobilesdk_app_id": "1:269285699390:android:042f15c6137330680e466f",
        "android_client_info": {
          "package_name": "com.donorun"
        }
      },
      "oauth_client": [
        {
          "client_id": "269285699390-ta336lhsmu4badfs9gn2vq0u0rhgbbs1.apps.googleusercontent.com",
          "client_type": 3
        }
      ],
      "api_key": [
        {
          "current_key": "AIzaSyCFt7hyx-sysjqy0wCQZGcQKpi4LsyJqeM"
        }
      ],
      "services": {
        "appinvite_service": {
          "other_platform_oauth_client": [
            {
              "client_id": "269285699390-ta336lhsmu4badfs9gn2vq0u0rhgbbs1.apps.googleusercontent.com",
              "client_type": 3
            }
          ]
        }
      }
    }
  ],
  "configuration_version": "1"
}